{
	"IcoMoonType": "selection",
	"icons": [
		{
			"icon": {
				"paths": [
					"M579.2 1014.4c3.2 9.6 9.6 12.8 19.2 9.6s12.8-9.6 12.8-19.2l-102.4-492.8 102.4-496c0-6.4-3.2-16-12.8-16 0 0-3.2 0-3.2 0-6.4 0-12.8 3.2-16 9.6l-156.8 499.2c0 3.2 0 6.4 0 9.6l156.8 496z"
				],
				"attrs": [
					{
						"opacity": 1,
						"visibility": false
					}
				],
				"grid": 0,
				"tags": [
					"Untitled-2"
				]
			},
			"attrs": [
				{
					"opacity": 1,
					"visibility": false
				}
			],
			"properties": {
				"order": 21,
				"id": 2,
				"prevSize": 32,
				"code": 58888,
				"name": "previousNarrow",
				"ligatures": ""
			},
			"setIdx": 0,
			"iconIdx": 0
		},
		{
			"icon": {
				"paths": [
					"M451.2 9.6c0-9.6-9.6-12.8-19.2-9.6s-12.8 9.6-12.8 19.2l105.6 492.8-102.4 496c-3.2 9.6 3.2 16 12.8 19.2 0 0 3.2 0 3.2 0 6.4 0 12.8-3.2 16-9.6l156.8-499.2c0-3.2 0-6.4 0-9.6l-160-499.2z"
				],
				"attrs": [
					{
						"opacity": 1,
						"visibility": false
					}
				],
				"grid": 0,
				"tags": [
					"Untitled-2"
				]
			},
			"attrs": [
				{
					"opacity": 1,
					"visibility": false
				}
			],
			"properties": {
				"order": 13,
				"id": 1,
				"prevSize": 32,
				"code": 58887,
				"name": "nextNarrow",
				"ligatures": ""
			},
			"setIdx": 0,
			"iconIdx": 1
		},
		{
			"icon": {
				"paths": [
					"M558.951 888.367h-141.043v-376.367h-94.092v-129.707l94.092-0.043-0.154-76.414c0-105.818 28.694-170.203 153.34-170.203h103.777v129.732h-64.857c-48.539 0-50.873 18.124-50.873 51.958l-0.193 64.927h116.65l-13.749 129.707-102.805 0.043-0.095 376.367z"
				],
				"attrs": [
					{
						"opacity": 1,
						"visibility": false
					}
				],
				"grid": 20
			},
			"attrs": [
				{
					"opacity": 1,
					"visibility": false
				}
			],
			"properties": {
				"order": 14,
				"id": 1,
				"prevSize": 32,
				"code": 58883,
				"name": "facebook",
				"ligatures": ""
			},
			"setIdx": 1,
			"iconIdx": 0
		},
		{
			"icon": {
				"paths": [
					"M257.248 257.248h509.507v509.507h-509.507z"
				],
				"attrs": [
					{
						"opacity": 1,
						"visibility": false
					}
				],
				"grid": 20
			},
			"attrs": [
				{
					"opacity": 1,
					"visibility": false
				}
			],
			"properties": {
				"order": 15,
				"id": 0,
				"prevSize": 32,
				"code": 58882,
				"name": "square",
				"ligatures": ""
			},
			"setIdx": 1,
			"iconIdx": 1
		},
		{
			"icon": {
				"paths": [
					"M307.251 276.48l-0.051 471.040 409.6-235.52z"
				],
				"attrs": [
					{
						"opacity": 1,
						"visibility": false
					}
				],
				"grid": 20
			},
			"attrs": [
				{
					"opacity": 1,
					"visibility": false
				}
			],
			"properties": {
				"order": 16,
				"id": 4,
				"prevSize": 32,
				"code": 58886,
				"name": "next",
				"ligatures": ""
			},
			"setIdx": 1,
			"iconIdx": 2
		},
		{
			"icon": {
				"paths": [
					"M716.749 276.48l0.051 471.040-409.6-235.52z"
				],
				"attrs": [
					{
						"opacity": 1,
						"visibility": false
					}
				],
				"grid": 20
			},
			"attrs": [
				{
					"opacity": 1,
					"visibility": false
				}
			],
			"properties": {
				"order": 17,
				"id": 3,
				"prevSize": 32,
				"code": 58884,
				"name": "previous",
				"ligatures": ""
			},
			"setIdx": 1,
			"iconIdx": 3
		},
		{
			"icon": {
				"paths": [
					"M326.676 250.424c0 40.008-29.544 72.414-78.133 72.414-45.729 0-75.273-32.405-75.273-72.414 0-40.949 30.524-72.414 77.191-72.414s75.273 31.464 76.214 72.414zM177.109 845.989v-465.942h144.827v465.942h-144.827zM408.612 528.673c0-58.111-1.919-106.7-3.838-148.627h125.781l6.699 64.809h2.86c19.044-30.524 65.751-75.273 143.885-75.273 95.258 0 166.731 63.831 166.731 201.054v275.388h-144.827v-258.225c0-60.030-21.002-101.017-73.392-101.017-40.008 0-63.795 27.625-74.295 54.311-3.838 9.522-4.779 22.846-4.779 36.205v268.727h-144.827v-317.352z"
				],
				"attrs": [
					{
						"opacity": 1,
						"visibility": false
					}
				],
				"grid": 20
			},
			"attrs": [
				{
					"opacity": 1,
					"visibility": false
				}
			],
			"properties": {
				"order": 18,
				"id": 2,
				"prevSize": 32,
				"code": 58885,
				"name": "linkedin",
				"ligatures": ""
			},
			"setIdx": 1,
			"iconIdx": 4
		},
		{
			"icon": {
				"paths": [
					"M389.171 687.002c-13.722 13.875-13.722 36.301 0 50.125 13.67 13.875 35.891 13.875 49.613 0l196.096-200.038c13.722-13.875 13.722-36.301 0-50.125l-196.096-200.090c-13.722-13.875-35.891-13.875-49.613 0s-13.722 36.25-0.051 50.074l160.819 175.053-160.768 175.002z"
				],
				"attrs": [
					{
						"opacity": 1,
						"visibility": false
					}
				],
				"grid": 20
			},
			"attrs": [
				{
					"opacity": 1,
					"visibility": false
				}
			],
			"properties": {
				"order": 19,
				"id": 1,
				"prevSize": 32,
				"code": 58881,
				"name": "nextLight",
				"ligatures": ""
			},
			"setIdx": 1,
			"iconIdx": 5
		},
		{
			"icon": {
				"paths": [
					"M634.829 687.002c13.722 13.875 13.722 36.301 0 50.125-13.722 13.875-35.891 13.875-49.613 0l-196.096-200.038c-13.722-13.875-13.722-36.301 0-50.125l196.096-200.090c13.722-13.875 35.891-13.875 49.613 0s13.722 36.25 0 50.125l-160.768 175.002 160.768 175.002z"
				],
				"attrs": [
					{
						"opacity": 1,
						"visibility": false
					}
				],
				"grid": 20
			},
			"attrs": [
				{
					"opacity": 1,
					"visibility": false
				}
			],
			"properties": {
				"order": 20,
				"id": 0,
				"prevSize": 32,
				"code": 58880,
				"name": "previousLight",
				"ligatures": ""
			},
			"setIdx": 1,
			"iconIdx": 6
		}
	],
	"height": 1024,
	"metadata": {
		"name": "icomoon"
	},
	"preferences": {
		"showGlyphs": true,
		"showQuickUse": true,
		"fontPref": {
			"prefix": "icon-",
			"metadata": {
				"fontFamily": "icomoon",
				"majorVersion": 1,
				"minorVersion": 0
			},
			"metrics": {
				"emSize": 512,
				"baseline": 6.25,
				"whitespace": 50
			}
		},
		"imagePref": {},
		"historySize": 100,
		"showCodes": true,
		"search": "",
		"gridSize": 16,
		"showGrid": false
	}
}