<?xml version="1.0" standalone="no"?>
<!DOCTYPE svg PUBLIC "-//W3C//DTD SVG 1.1//EN" "http://www.w3.org/Graphics/SVG/1.1/DTD/svg11.dtd" >
<svg xmlns="http://www.w3.org/2000/svg">
<metadata>Generated by IcoMoon</metadata>
<defs>
<font id="icomoon" horiz-adv-x="512">
<font-face units-per-em="512" ascent="480" descent="-32" />
<missing-glyph horiz-adv-x="512" />
<glyph unicode="&#x20;" d="" horiz-adv-x="256" />
<glyph unicode="&#xe600;" d="M317.414 142.899c6.861-6.938 6.861-18.151 0-25.063-6.861-6.938-17.945-6.938-24.807 0l-98.048 100.019c-6.861 6.938-6.861 18.151 0 25.063l98.048 100.045c6.861 6.938 17.945 6.938 24.807 0s6.861-18.125 0-25.063l-80.384-87.501 80.384-87.501z" />
<glyph unicode="&#xe601;" d="M194.585 142.899c-6.861-6.938-6.861-18.151 0-25.063 6.835-6.938 17.946-6.938 24.806 0l98.048 100.019c6.861 6.938 6.861 18.151 0 25.063l-98.048 100.045c-6.861 6.938-17.946 6.938-24.806 0s-6.861-18.125-0.025-25.037l80.409-87.527-80.384-87.501z" />
<glyph unicode="&#xe602;" d="M128.624 357.776h254.754v-254.754h-254.754z" />
<glyph unicode="&#xe603;" d="M279.476 42.216h-70.522v188.184h-47.046v64.853l47.046 0.022-0.077 38.207c0 52.909 14.347 85.101 76.67 85.101h51.889v-64.866h-32.428c-24.269 0-25.437-9.062-25.437-25.979l-0.096-32.464h58.325l-6.875-64.853-51.402-0.022-0.048-188.184z" />
<glyph unicode="&#xe604;" d="M358.375 348.16l0.026-235.52-204.8 117.76z" />
<glyph unicode="&#xe605;" d="M163.338 361.188c0-20.004-14.772-36.207-39.066-36.207-22.864 0-37.636 16.202-37.636 36.207 0 20.475 15.262 36.207 38.596 36.207s37.637-15.732 38.107-36.207zM88.555 63.405v232.971h72.414v-232.971h-72.413zM204.306 222.063c0 29.056-0.959 53.35-1.919 74.314h62.891l3.349-32.405h1.43c9.522 15.262 32.875 37.637 71.942 37.637 47.629 0 83.365-31.916 83.365-100.527v-137.694h-72.413v129.113c0 30.015-10.501 50.509-36.696 50.509-20.004 0-31.897-13.813-37.147-27.156-1.919-4.761-2.389-11.423-2.389-18.103v-134.363h-72.413v158.676z" />
<glyph unicode="&#xe606;" d="M153.625 348.16l-0.025-235.52 204.8 117.76z" />
<glyph unicode="&#xe607;" d="M225.6 475.2c0 4.8-4.8 6.4-9.6 4.8s-6.4-4.8-6.4-9.6l52.8-246.4-51.2-248c-1.6-4.8 1.6-8 6.4-9.6 0 0 1.6 0 1.6 0 3.2 0 6.4 1.6 8 4.8l78.4 249.6c0 1.6 0 3.2 0 4.8l-80 249.6z" />
<glyph unicode="&#xe608;" d="M289.6-27.2c1.6-4.8 4.8-6.4 9.6-4.8s6.4 4.8 6.4 9.6l-51.2 246.4 51.2 248c0 3.2-1.6 8-6.4 8 0 0-1.6 0-1.6 0-3.2 0-6.4-1.6-8-4.8l-78.4-249.6c0-1.6 0-3.2 0-4.8l78.4-248z" />
</font></defs></svg>